<?xml version="1.0" encoding="UTF-8" standalone="no"?>
<svg
   xmlns:dc="http://purl.org/dc/elements/1.1/"
   xmlns:cc="http://creativecommons.org/ns#"
   xmlns:rdf="http://www.w3.org/1999/02/22-rdf-syntax-ns#"
   xmlns:svg="http://www.w3.org/2000/svg"
   xmlns="http://www.w3.org/2000/svg"
   xmlns:sodipodi="http://sodipodi.sourceforge.net/DTD/sodipodi-0.dtd"
   xmlns:inkscape="http://www.inkscape.org/namespaces/inkscape"
   version="1.1"
   id="Capa_1"
   x="0px"
   y="0px"
   viewBox="0 0 486.569 486.569"
   style="enable-background:new 0 0 486.569 486.569;"
   xml:space="preserve"
   sodipodi:docname="volver.svg"
   inkscape:version="1.0.1 (3bc2e813f5, 2020-09-07)"><style></style><metadata
   id="metadata41"><rdf:RDF><cc:Work
       rdf:about=""><dc:format>image/svg+xml</dc:format><dc:type
         rdf:resource="http://purl.org/dc/dcmitype/StillImage" /></cc:Work></rdf:RDF></metadata><defs
   id="defs39" /><sodipodi:namedview
   pagecolor="#ffffff"
   bordercolor="#666666"
   borderopacity="1"
   objecttolerance="10"
   gridtolerance="10"
   guidetolerance="10"
   inkscape:pageopacity="0"
   inkscape:pageshadow="2"
   inkscape:window-width="1366"
   inkscape:window-height="745"
   id="namedview37"
   showgrid="false"
   inkscape:snap-bbox="true"
   inkscape:bbox-paths="true"
   inkscape:bbox-nodes="true"
   inkscape:snap-bbox-edge-midpoints="true"
   inkscape:snap-bbox-midpoints="true"
   inkscape:object-paths="true"
   inkscape:snap-intersection-paths="true"
   inkscape:snap-smooth-nodes="true"
   inkscape:snap-midpoints="true"
   inkscape:snap-object-midpoints="true"
   inkscape:snap-center="true"
   inkscape:snap-global="true"
   inkscape:zoom="0.86613747"
   inkscape:cx="196.73685"
   inkscape:cy="197.5132"
   inkscape:window-x="-8"
   inkscape:window-y="-8"
   inkscape:window-maximized="1"
   inkscape:current-layer="Capa_1" />

<g
   id="g6">
</g>
<g
   id="g8">
</g>
<g
   id="g10">
</g>
<g
   id="g12">
</g>
<g
   id="g14">
</g>
<g
   id="g16">
</g>
<g
   id="g18">
</g>
<g
   id="g20">
</g>
<g
   id="g22">
</g>
<g
   id="g24">
</g>
<g
   id="g26">
</g>
<g
   id="g28">
</g>
<g
   id="g30">
</g>
<g
   id="g32">
</g>
<g
   id="g34">
</g>
<path
   id="rect886"
   style="fill:#000000"
   d="m 134.09799,134.80584 c -3.68518,-0.1692 -7.43524,1.07345 -10.38867,3.76758 L 20.621424,232.60857 c -0.09186,0.0838 -0.170558,0.17616 -0.259766,0.26172 -0.157515,0.15119 -0.310435,0.30667 -0.460937,0.46484 -0.186548,0.19558 -0.367459,0.39433 -0.541016,0.59766 -0.116179,0.1366 -0.226801,0.27702 -0.33789,0.41797 -0.193369,0.24435 -0.381222,0.49046 -0.556641,0.74414 -0.07201,0.10461 -0.139691,0.21177 -0.208985,0.31836 -0.193031,0.29562 -0.377625,0.59422 -0.546874,0.90039 -0.04181,0.076 -0.08062,0.15366 -0.121094,0.23047 -0.191752,0.36228 -0.37044,0.72922 -0.529297,1.10351 -0.0041,0.01 -0.0077,0.0196 -0.01172,0.0293 -0.18105,0.42922 -0.33885,0.86484 -0.476562,1.30664 -0.723459,2.32097 -0.847124,4.78714 -0.361328,7.16797 0.0057,0.0287 0.01167,0.0573 0.01758,0.0859 0.08113,0.38559 0.179709,0.76684 0.292968,1.14648 0.035,0.11902 0.06948,0.23777 0.107422,0.35547 0.0877,0.26836 0.187014,0.53274 0.291016,0.79688 0.08398,0.21582 0.169773,0.43005 0.263672,0.64062 0.07767,0.17229 0.161253,0.34181 0.246094,0.51172 0.137914,0.279 0.280492,0.55394 0.435546,0.82227 4.48e-4,7.7e-4 0.0015,0.001 0.002,0.002 0.01226,0.021 0.02082,0.0435 0.0332,0.0644 0.0012,0.002 0.0027,0.004 0.0039,0.006 0.04995,0.0845 0.10637,0.16625 0.158203,0.25 0.1845,0.30075 0.37661,0.59534 0.582031,0.88086 0.02571,0.0356 0.0501,0.072 0.07617,0.10742 0.0255,0.0345 0.05423,0.0672 0.08008,0.10157 0.242632,0.32467 0.497028,0.63882 0.765625,0.9414 0.02874,0.0323 0.05881,0.0636 0.08789,0.0957 0.0093,0.0103 0.01804,0.021 0.02734,0.0312 0.0019,0.002 0.004,0.004 0.0059,0.006 0.0019,0.002 0.004,0.004 0.0059,0.006 0.282236,0.30974 0.576692,0.60661 0.884766,0.89063 0.02322,0.0215 0.04301,0.0451 0.06641,0.0664 L 123.7308,347.99529 c 5.90686,5.38826 14.99846,4.97132 20.38672,-0.93555 5.38826,-5.90686 4.97132,-15.00041 -0.93555,-20.38867 L 67.590174,257.71599 H 456.21908 c 7.99527,0 14.43164,-6.43637 14.43164,-14.43164 0,-7.99527 -6.43637,-14.43164 -14.43164,-14.43164 H 67.568689 l 75.591801,-68.95508 c 5.90686,-5.38825 6.3238,-14.48181 0.93555,-20.38867 -2.69413,-2.95343 -6.31287,-4.53392 -9.99805,-4.70312 z" /></svg>
